Change Component Footprint: Designator=I1 Old Footprint=IND_12.5x12.5 New Footprint=IND_7.2x6.65
Change Component Comment : Designator=I1 Old Comment=12uH New Comment=10uH
Added Pin To Net: NetName=NetC11_2 Pin=R28-1
Added Pin To Net: NetName=NetC11_2 Pin=R41-2
